%YAML 1.1
%TAG !u! tag:unity3d.com,2011:
--- !u!114 &11400000
MonoBehaviour:
  m_ObjectHideFlags: 0
  m_CorrespondingSourceObject: {fileID: 0}
  m_PrefabInternal: {fileID: 0}
  m_GameObject: {fileID: 0}
  m_Enabled: 1
  m_EditorHideFlags: 0
  m_Script: {fileID: -770389242, guid: 4df21bd079886d84699ca7be1316c7a7, type: 3}
  m_Name: Default Material Palette
  m_EditorClassIdentifier: 
  array:
  - {fileID: 2100000, guid: 55296d1b6ee54e14e8eb4648d4b448ee, type: 2}
  - {fileID: 2100000, guid: 166ab705680fa214992e098892336c0f, type: 2}
  - {fileID: 2100000, guid: e78b20d70830bed41811686951d0438d, type: 2}
  - {fileID: 2100000, guid: b7a1f43b52ae34f4a8c7763562d3facd, type: 2}
  - {fileID: 2100000, guid: d6d99b2284bee5843b82f9fe8c366740, type: 2}
  - {fileID: 2100000, guid: c6ce11ec4112e7b4089b5f85185e3492, type: 2}
  - {fileID: 0}
  - {fileID: 0}
  - {fileID: 0}
  - {fileID: 0}
