%YAML 1.1
%TAG !u! tag:unity3d.com,2011:
--- !u!114 &11400000
MonoBehaviour:
  m_ObjectHideFlags: 0
  m_CorrespondingSourceObject: {fileID: 0}
  m_PrefabInternal: {fileID: 0}
  m_GameObject: {fileID: 0}
  m_Enabled: 1
  m_EditorHideFlags: 0
  m_Script: {fileID: 11500000, guid: 78410d5711c029249b032b00b86d76cf, type: 3}
  m_Name: Candle
  m_EditorClassIdentifier: 
  interactableObj: {fileID: 1248436692285918, guid: 98c9c227d7d246541a9f61cae715fda7,
    type: 2}
  comment: Mum loves candles, she thinks they're good luck
  interactableScale: {x: 1.3, y: 1.3, z: 1.3}
