%YAML 1.1
%TAG !u! tag:unity3d.com,2011:
--- !u!114 &11400000
MonoBehaviour:
  m_ObjectHideFlags: 0
  m_CorrespondingSourceObject: {fileID: 0}
  m_PrefabInternal: {fileID: 0}
  m_GameObject: {fileID: 0}
  m_Enabled: 1
  m_EditorHideFlags: 0
  m_Script: {fileID: 11500000, guid: 78410d5711c029249b032b00b86d76cf, type: 3}
  m_Name: Crucifix
  m_EditorClassIdentifier: 
  interactableObj: {fileID: 1700836174546590, guid: fadf73a4311269041bbb3b1314461426,
    type: 2}
  comment: I'm slowly convincing Mum to let me remove the religious paraphernalia
    from my room
  interactableScale: {x: 0.3, y: 0.3, z: 0.3}
