%YAML 1.1
%TAG !u! tag:unity3d.com,2011:
--- !u!114 &11400000
MonoBehaviour:
  m_ObjectHideFlags: 0
  m_CorrespondingSourceObject: {fileID: 0}
  m_PrefabInternal: {fileID: 0}
  m_GameObject: {fileID: 0}
  m_Enabled: 1
  m_EditorHideFlags: 0
  m_Script: {fileID: 11500000, guid: 78410d5711c029249b032b00b86d76cf, type: 3}
  m_Name: Mallochio
  m_EditorClassIdentifier: 
  interactableObj: {fileID: 1794805817271818, guid: 97aca76fde20a29458cfb1c1ef37c325,
    type: 2}
  comment: Mum makes me wear this to ward off the Evil Eye
  interactableScale: {x: 1.2, y: 1.2, z: 1.2}
