%YAML 1.1
%TAG !u! tag:unity3d.com,2011:
--- !u!114 &11400000
MonoBehaviour:
  m_ObjectHideFlags: 0
  m_CorrespondingSourceObject: {fileID: 0}
  m_PrefabInternal: {fileID: 0}
  m_GameObject: {fileID: 0}
  m_Enabled: 1
  m_EditorHideFlags: 0
  m_Script: {fileID: 11500000, guid: 78410d5711c029249b032b00b86d76cf, type: 3}
  m_Name: Photo
  m_EditorClassIdentifier: 
  interactableObj: {fileID: 1211747349118358, guid: d3c012b58c75897488b2303d44cad4f3,
    type: 2}
  comment: I've never been in an Italian-Australian house that doesn't have this picture
  interactableScale: {x: 0.8, y: 0.8, z: 0.8}
