%YAML 1.1
%TAG !u! tag:unity3d.com,2011:
--- !u!114 &11400000
MonoBehaviour:
  m_ObjectHideFlags: 0
  m_CorrespondingSourceObject: {fileID: 0}
  m_PrefabInternal: {fileID: 0}
  m_GameObject: {fileID: 0}
  m_Enabled: 1
  m_EditorHideFlags: 0
  m_Script: {fileID: 11500000, guid: 78410d5711c029249b032b00b86d76cf, type: 3}
  m_Name: Trunk
  m_EditorClassIdentifier: 
  interactableObj: {fileID: 1996593867065444, guid: c39d01124e6e260428141b725c032665,
    type: 2}
  comment: Mum's dowry trunk, she brought it all the way from Italy
  interactableScale: {x: 0.2, y: 0.2, z: 0.2}
